{
    "List": "uno",
    "websites": [
        {
            "Author": "Me)",
            "Name": "some site.com",
            "daily_visits": "0",
            "domen": ".com",
            "position": 1
        },
        {
            "Author": "Me)",
            "Name": "312.com",
            "daily_visits": "0",
            "domen": ".com",
            "position": 1
        }
    ]
}
