{
    "Chapter": "data.json",
    "students": [
        {
            "Subjects": [
                "Proga",
                "Matan",
                "AeSDe"
            ],
            "age": 19,
            "name": "Yaroslav",
            "score": "98.8"
        },
        {
            "Subjects": [
                "Dancing",
                "Vyshyvannya",
                "Cooking"
            ],
            "age": 18,
            "name": "Alina",
            "score": "74.3"
        },
        {
            "Subjects": [
                "Strelba",
                "FP",
                "Military Training"
            ],
            "age": 23,
            "name": "Gena",
            "score": "87.9"
        }
    ]
}
